[
  {
    "type": "escape",
    "width": 64,
    "align": "left"
  },
  {
    "type": "dnd",
    "align": "left",
    "width": 38
  },
  { "type": "brightnessDown", "width": 32, "bordered": false, "align": "left" },
  { "type": "brightnessUp", "width": 32, "bordered": false, "align": "left" },
  { "type": "displaySleep", "width": 40, "align": "right", "bordered": false },
  {
    "type": "weather",
    "align": "right",
    "icon_type": "images",
    "api_key": "ca93a0bb8cdb428552660d83249e4bc9",
    "bordered": false
  },
  {
    "type": "volumeDown",
    "bordered": false,
    "align": "right",
    "width": 28
  },
  {
    "type": "volumeUp",
    "bordered": false,
    "align": "right",
    "width": 28
  },
  {
    "type": "play",
    "align": "right",
    "width": 38
  },
  {
    "type": "battery",
    "align": "right",
    "bordered": false
  },
  {
    "type": "timeButton",
    "formatTemplate": "HH:mm",
    "align": "right",
    "bordered": false,
    "longAction": "shellScript",
    "longExecutablePath": "/usr/bin/pmset",
    "longShellArguments": ["sleepnow"]
  }
]
